<svg width="23" height="15" viewBox="0 0 23 15" fill="none" xmlns="http://www.w3.org/2000/svg">
    <path d="M22.8538 7.05265C22.6483 6.77157 17.7526 0.170334 11.4999 0.170334C5.24715 0.170334 0.3512 6.77157 0.145951 7.05238C-0.0486505 7.31904 -0.0486505 7.6807 0.145951 7.94736C0.3512 8.22844 5.24715 14.8297 11.4999 14.8297C17.7526 14.8297 22.6483 8.22839 22.8538 7.94758C23.0487 7.68097 23.0487 7.31904 22.8538 7.05265ZM11.4999 13.3132C6.89408 13.3132 2.90497 8.93182 1.7241 7.49949C2.90344 6.06589 6.8842 1.68681 11.4999 1.68681C16.1055 1.68681 20.0943 6.06742 21.2757 7.50052C20.0963 8.93407 16.1156 13.3132 11.4999 13.3132Z" fill="#9F9F9F"/>
    <path d="M11.4999 2.95055C8.99138 2.95055 6.95044 4.99149 6.95044 7.50003C6.95044 10.0086 8.99138 12.0495 11.4999 12.0495C14.0084 12.0495 16.0494 10.0086 16.0494 7.50003C16.0494 4.99149 14.0084 2.95055 11.4999 2.95055ZM11.4999 10.533C9.82746 10.533 8.46696 9.17242 8.46696 7.50003C8.46696 5.82763 9.82751 4.46707 11.4999 4.46707C13.1723 4.46707 14.5329 5.82763 14.5329 7.50003C14.5329 9.17242 13.1723 10.533 11.4999 10.533Z" fill="#9F9F9F"/>
</svg>
