<?xml version="1.0" encoding="utf-8"?>
<!-- Generator: Adobe Illustrator 15.0.0, SVG Export Plug-In . SVG Version: 6.00 Build 0)  -->
<!DOCTYPE svg PUBLIC "-//W3C//DTD SVG 1.1//EN" "http://www.w3.org/Graphics/SVG/1.1/DTD/svg11.dtd">
<svg version="1.1" xmlns="http://www.w3.org/2000/svg" xmlns:xlink="http://www.w3.org/1999/xlink" x="0px" y="0px" width="500px"
	 height="500px" viewBox="0 0 500 500" enable-background="new 0 0 500 500" xml:space="preserve">
<g id="Capa_1" display="none">
	<path display="inline" fill-rule="evenodd" clip-rule="evenodd" d="M414.523,107.178c18.178-6.184,45.675-11.688,49.984,10.972
		c1.147,6.033-2.367,13.018-2.438,20.725c-0.085,9.234,3.098,18.94,2.438,25.602c-2.588,26.149-26.337,46.561-43.889,65.833
		c-14.803,16.257-40.031,41.865-59.737,48.766c-23.734,8.311-58.779,4.302-81.682,7.314c3.65,11.303,9.975,24.77,13.411,40.231
		c3.257,14.651,9.848,31.157,10.972,45.107c1.907,23.646-11.838,37.387-25.019,54.251c-43.413,22.006-100.056,7.911-125.976-20.726
		c-10.565,10.973-16.527,22.052-26.997,31.088c-26.238,5.894-50.069,2.5-67.052-9.753c-11.021-7.951-24.664-29.141-23.164-41.45
		c1.387-11.381,23.449-25.888,31.697-34.136c12.395-12.395,21.371-22.132,31.697-32.916c-12.874-27.03-49.706-53.946-41.172-85.035
		c3.326-4.267,8.529-5.984,10.694-3.962c-5.335-12.461-9.137-30.539,4.876-34.135c28.716-7.37,49.614,52.051,65.833,59.738
		c-5.39-19.158,13.686-28.206,30.478-21.945c-4.292-12.203-14.772-24.223-23.164-40.231c-4.744-9.051-22.125-40.363-4.876-45.107
		c13.154-3.619,23.64,15.948,29.259,23.163c8.968,11.515,15.73,19.671,24.382,28.04c10.914-22.593,22.438-52.839,32.917-79.243
		c3.604-9.082,5.584-20.106,9.753-26.821c15.766-25.397,72.98-47.235,97.529-17.068c21.766-2.26,34.816,4.197,42.67,15.849
		C397.58,89.173,404.363,99.865,414.523,107.178z M243.847,93.768c-6.099,9.006-9.916,24.89-14.629,36.574
		c-10.29,25.508-18.896,47.032-29.259,73.147c-7.414,18.685-20.945,37.911-8.534,47.546c23.716-4.396,51.668,2.12,69.49,14.63
		c9.117,6.4,10.163,12.561,15.849,15.849c2.107,1.22,21.646-1.23,26.185-1.523c23.476-1.516,35.821,1.171,55.497-5.791
		c20.67-7.313,38.74-27.768,53.642-42.67c24.347-24.346,48.086-42.611,45.107-81.682c-8.227,18.187-24.643,28.186-48.766,30.478
		c-6.007,4.215-7.091,18.268-15.849,15.849c1.864-7.687,9.71-12.411,8.534-19.506c8.9-7.164,12.446-25.462,24.383-25.602
		c-0.567,9.337-14.173,18.13-10.973,23.164c22.063-1.991,40.098-20.104,43.889-40.231c7.341-38.971-33.909-25.424-52.422-15.849
		c-9.696,5.016-19.295,14.074-25.603,10.972c6.592-9.664,19.633-12.877,28.04-20.725c-8.979-6.633-15.112-12.257-26.82-12.191
		c-15.67,0.089-26.305,15.19-36.574,12.191c6.42-8.211,16.997-12.263,24.383-19.506c-5.503-4.396-11.144-7.756-18.287-8.534
		c-17.66-1.923-36.924,10.688-47.546,8.534c4.06-7.725,15.187-8.385,20.726-14.63C297.531,55.881,257.866,73.063,243.847,93.768z
		 M142.659,152.286c-17.399,10.362,25.345,64.143,39.012,82.9c3.182-10.229,8.077-18.744,10.972-29.259
		C176.734,187.294,153.3,148.019,142.659,152.286z M117.058,236.406c-9.411-11.554-19.996-29.466-30.479-34.136
		c-8.473-3.774-17.042-0.857-18.287,7.315c-2.133,14.001,16.254,33.309,24.382,43.889c11.399,14.837,20.33,25.404,29.259,39.013
		c9.645-4.985,14.532-14.728,23.163-20.726C136.868,261.524,127.767,249.555,117.058,236.406z M103.647,313.211
		c4.563-6.409,11.287-10.657,15.849-17.067c-20.152-19.266-46.354-68.272-56.08-62.176C49.674,254.084,88.25,289.95,103.647,313.211
		z M143.878,242.501c-6.732,11.99,14.019,36.372,31.697,43.889c-8.307-14.24,0.968-27.889,9.753-35.355
		C181.185,238.726,154.2,230.097,143.878,242.501z M275.543,422.933c6.436-13.121,23.452-27.992,23.164-47.546
		c-0.089-5.999-4.35-13.751-6.096-20.726c-6.209-24.806-9.772-55.658-24.383-74.366c-16.825-21.544-54.412-32.376-80.462-20.726
		c15.294-4.057,34.231,0.888,34.136,12.191c-0.129,15.299-31.104,17.195-42.669,7.315c9.814,18.226,40.234,15.845,60.957,23.163
		c-4.738,5.591,1.507,12.7,2.438,20.725c1.96,16.899-2.224,29.881-4.876,42.67c-1.624,7.828-0.446,21.51-8.534,19.506
		c2.629-17.562,12.373-49.254,4.876-73.147c-26.124,25.08-54.307,58.664-78.024,90.215
		C181.59,426.729,232.938,443.007,275.543,422.933z M182.89,274.199c6.883,7.526,29.035,8.689,32.917-2.438
		C213.258,260.123,182.411,259.187,182.89,274.199z M148.931,274.402c-24.482,22.705-56.302,56.303-83.713,83.714
		c-8.421,8.422-22.816,20.61-23.746,28.242c-1.34,10.996,9.798,26.523,17.068,32.917c12.742,11.205,43.892,19.956,63.395,12.191
		c8.779-3.496,22.259-22.903,29.435-31.9c27.228-34.135,52.017-62.988,80.057-94.279
		C202.414,298.132,166.255,293.246,148.931,274.402z"/>
</g>
<g id="Capa_2">
	<path fill-rule="evenodd" clip-rule="evenodd" d="M412.302,105.692c13.297-5.495,40.21-8.244,45.839,1.207
		c5.632,9.449-0.986,23.604,0.404,53.479c0.805,17.291-21.312,47.046-41.617,66.146c-20.175,18.977-40.771,42.481-68.562,46.844
		c-21.447,3.367-42.503,4.554-63.935,14.477c15.003,31.892,26.824,90.91,1.207,120.632c-23.813,27.631-90.068,27.079-114.601,0
		c-8.96,9.134-14.536,21.654-24.125,30.159C87.565,445.01,55.128,414.83,39.55,373.495c13.831-23.986,41.179-44.86,57.903-69.968
		c-11.805-25.532-46.242-53.479-34.983-80.822c2.861-2.206,6.977-3.149,10.857-1.207c-2.723-7.731-9.248-14.476-6.031-25.333
		c27.728-27.899,51.385,35.077,71.172,48.253c1.879-9.38,1.366-21.153,7.238-26.539c4.902-2.142,12.985-1.208,18.095,0
		c-5.681-14.708-14.587-22.675-22.116-39.406c-3.619-8.042-10.455-22.92-3.217-34.179c13.672-5.629,36.223,28.516,51.872,44.634
		c9.577-14.096,19.14-30.578,28.952-48.253c9.143-16.472,16.302-36.38,26.539-50.666c16.22-22.637,57.991-43.792,86.855-16.889
		c19.065-2.179,31.383,2.394,38.602,12.063c4.479-1.953,9.649-3.015,18.095-1.205C401.143,89.105,406.085,97.031,412.302,105.692z
		 M249.449,91.216c-7.046,9.148-11.837,22.387-18.095,33.777c-18.164,33.057-39.893,69.173-55.49,101.331
		c7.314,9.976,17.135,17.446,16.888,34.983c32.9-15.939,75.632,0.366,90.472,24.126c19.789-11.308,42.537-12.092,65.142-15.683
		c19.961-3.169,39.626-18.093,55.491-34.983c24.93-26.539,55.461-44.782,50.665-90.473c-10.209,17.535-23.477,32.014-51.871,31.364
		c-5.821,4.633-7.816,13.092-14.477,16.889c5.822-18.34,20.746-33.893,32.572-42.221c-2.765,9.299-11.258,12.869-14.477,21.713
		c48.453,0,54.485-56.899,49.458-62.729c-5.024-5.831-17.496-7.3-26.538-6.032c-18.243,2.561-34.619,23.387-48.254,20.508
		c8.442-6.436,20.267-9.49,27.746-16.888c-5.334-7.534-11.183-14.553-19.301-19.302c-21.439-4.88-26.396,12.913-38.602,13.269
		c2.262-8.193,13.077-7.831,15.681-15.683c-18.087-23.371-49.287,5.494-63.935,3.62c7.048-6.624,18.424-8.921,26.539-14.476
		C300.61,51.483,264.752,71.354,249.449,91.216z M140.88,147.914c-12.465,19.703,19.981,52.318,31.365,74.792
		c5.696-9.583,10.826-19.734,16.888-28.952C174.972,176.149,150.532,144.696,140.88,147.914z M115.548,222.706
		c-12.168-14.799-27.343-41.417-44.634-26.54c-6.836,12.063,20.663,46.541,34.982,63.935c3.664,4.451,12.022,18.273,15.682,18.095
		c2.147-0.104,8.972-11.274,9.651-12.063c4.201-4.88,7.861-7.137,9.65-12.063C134.029,245.958,125.522,234.837,115.548,222.706z
		 M149.325,220.293c-7.365,5.626-6.651,21.18-4.825,32.569c6.108,4.358,11.214,16.111,18.095,15.684
		c-4.741-7.534-2.441-22.525,6.031-24.127c8.176,2.64,13.802,13.914,12.063,24.127c-0.966,5.668-8.093,8.217-4.825,10.856
		c4.146,0.527,6.761-0.477,9.65-1.207C197.932,251.138,177.949,221.644,149.325,220.293z M99.866,299.91
		c7.967-4.498,12.896-12.036,18.095-19.303c-18.222-17.967-42.221-59.913-51.872-56.294
		C51.613,239.996,87.887,276.693,99.866,299.91z M171.038,274.576c11.147-3.117,5.437-24.413-2.413-26.538
		C159.837,252.592,164.388,271.112,171.038,274.576z M174.657,283.021c-13.012-5.888-21.215-16.583-31.364-25.333
		c-20.569,24.498-50.868,58.239-75.998,86.854c-7.014,7.985-23.627,21.688-24.126,28.952c-0.335,4.868,7.975,16.721,12.063,22.919
		c17.698,26.837,50.785,45.656,91.681,38.604c29.522-42.857,63.211-81.548,88.06-129.077c-20.337-4.189-42.556-6.501-48.252-25.333
		C184.505,283.219,179.609,283.146,174.657,283.021z M198.783,262.514c-24.016,24.554,14.983,39.478,39.809,41.014
		c3.019,27.856,0.77,60.055-7.237,80.825c-0.756-20.107,8.999-46.455,3.618-71.173c-18.524,32.944-41.122,61.815-61.521,92.886
		c13.126,8.398,22.523,17.267,39.808,19.3c60.012,7.062,88.049-28.04,83.237-83.234c-3.484-39.948-25.822-83.128-69.967-84.442
		C255.197,278.455,190.903,291.051,198.783,262.514z M202.403,269.751c4.287,9.709,25.637,8.853,28.952-1.205
		C228.499,259.57,203.249,257.167,202.403,269.751z"/>
</g>
<g id="Capa_3" display="none">
	<path display="inline" fill-rule="evenodd" clip-rule="evenodd" d="M415.146,106.304c16.023-8.908,43.919-8.891,48.105,8.417
		c1.373,5.685-1.069,12.549-1.203,19.242c-0.186,9.278,2.182,19.088,1.203,27.66c-2.481,21.705-23.302,41.081-42.092,61.332
		c-18.863,20.331-43.969,43.302-68.548,48.104c-20.05,3.916-34.021-1.221-45.698,8.418c7.762,21.265,12.693,42.384,14.432,64.939
		c4.018,52.168-34.075,78.607-85.384,79.37c-20.874,0.312-35.693-6.316-49.307-15.633c-11.688,7.954-18.172,21.111-27.66,31.268
		c-71.604,6.142-98.888-42.127-122.665-87.79c11.062-18.409,27.495-32.807,43.293-50.508c2.731-3.061,14.382-15.546,14.431-16.837
		c0.099-2.59-10.372-14.005-13.537-18.339c-8.453-11.571-23.971-36.552,0.309-42.993c-8.976-11.059-3.466-29.259,8.418-31.267
		c21.543-3.64,33.209,27.729,43.293,33.672c2.873-13.627,9.907-26.548,26.457-22.849c-4.61-7.259-35.651-49.333-12.026-56.522
		c19.597-5.963,30.069,17.929,38.483,28.862c23.089-22.982,42.35-62.471,65.834-88.089c13.692-14.936,40.286-32.36,66.451-24.955
		c5.736,1.624,9.712,8.381,16.837,9.621c11.399,1.984,20.514-3.626,30.064,1.203c6.951,3.515,7.394,8.707,14.432,15.633
		C393.604,87.692,408.381,95.307,415.146,106.304z M256.406,87.062c-15.685,15.088-28.697,39.42-43.295,60.13
		c-15.559,22.076-30.968,42.902-43.292,60.129c3.531,14.415,22.361,25.665,16.836,43.293c-6.567,20.954-40.854,1.334-50.509-7.215
		c-30.401,37.344-65.037,70.454-93.802,109.435c23.683,40.856,45.132,83.948,111.841,81.776
		c36.012-40.553,70.772-82.357,103.422-126.272c-9.877-17.436-53.564-7.695-46.901-38.482c1.129-5.213,10.622-12.455,16.836-14.431
		c27.067-8.608,67.191,0.519,78.169,19.241c9.477-9.349,26.06-6.61,40.889-8.418c25.479-3.105,51.83-25.149,68.546-42.09
		c17.766-18.005,45.481-45.175,42.685-76.364c-8.753,16.101-24.984,28.321-49.899,28.26c-3.145,6.203-6.912,16.405-13.229,15.634
		c3.581-10.377,14.273-27.106,21.647-37.281c2.438-3.365,4.9-10.864,9.62-6.012c-0.957,5.475-8.774,14.462-12.025,21.646
		c37.272,1.504,54.409-47.201,40.888-60.13c-12.17-9.749-31.918-1.984-45.699,4.81c-10.325,5.091-20.079,16.313-27.658,10.824
		c7.776-7.456,19.897-10.569,26.456-19.241c-5.158-6.336-10.19-10.95-18.038-12.026c-21.588-2.962-30.561,15.417-40.888,13.229
		c4.772-8.855,14.323-12.935,22.848-18.039c-2.854-7.598-8.911-13.071-15.633-14.431c-21.723-4.396-37.719,16.642-48.104,13.228
		c3.362-8.263,14.386-8.864,20.444-14.431C304.203,56.479,273.057,71.043,256.406,87.062z M144.856,151.703
		c-9.32,9.32,13.788,36.328,22.557,50.809c5.026-7.401,9.947-14.907,15.634-21.646C175.575,168.911,161.821,138.678,144.856,151.703
		z M82.029,202.511c-9.028,12.628,21.46,37.065,32.47,55.319c8.552-4.677,14.63-14.223,20.135-21.946
		C121.791,221.815,97.654,181.467,82.029,202.511z M138.551,234.981c7.728,8.715,19.004,20.273,33.673,18.039
		c-20.412-1.266-20.976-39.412,3.608-24.052C172.712,204.906,132.162,197.595,138.551,234.981z M112.094,262.641
		c-0.179-5.57-27.968-40.286-36.687-33.07c-13.529,11.725,11.969,36.867,22.256,49.907
		C97.663,279.478,112.332,270.055,112.094,262.641z M180.642,248.209c-0.4-11.626-8.359-15.692-18.038-18.039
		C158.619,240.859,171.651,250.496,180.642,248.209z M252.797,266.248c-3.149,7.622-12.988,11.271-22.849,9.62
		c-6.543-1.095-10.178-9.021-13.229-4.809c-3.262,24.911,35.927,17.783,46.9,32.47c11.146,18.929-5.976,32.016-12.025,44.494
		c-4.236,8.739-3.207,18.663-10.823,22.851c-3.24-18.605,17.608-33.606,20.443-54.117c-23.524,24.981-50.145,57.285-72.155,87.789
		c31.53,20.518,90.139,16.641,114.246-9.621c10.393-11.321,13.753-31.701,12.026-54.115c-3.37-43.75-14.76-88.412-64.94-82.979
		c-0.733,0.068-1.423,0.18-1.203,1.202C251.11,260.719,252.262,263.176,252.797,266.248z M223.935,266.248
		c2.928,5.954,19.607,4.537,22.85,0C246.045,256.55,225.688,259.387,223.935,266.248z"/>
</g>
</svg>
