<svg width="341" height="189" viewBox="0 0 341 189" fill="none" xmlns="http://www.w3.org/2000/svg">
    <ellipse cx="298.5" cy="314.5" rx="154.5" ry="180.5" fill="#FF8F00"/>
    <ellipse cx="23.6386" cy="-28.2188" rx="105.117" ry="137.156" fill="#FF8F00"/>
</svg>
