<svg width="555" height="556" viewBox="0 0 555 556" fill="none" xmlns="http://www.w3.org/2000/svg">
<g clip-path="url(#clip0)">
<path d="M555 278C555 431.259 430.759 555.5 277.5 555.5C124.241 555.5 0 431.259 0 278C0 124.741 124.241 0.5 277.5 0.5C430.759 0.5 555 124.741 555 278Z" fill="#92ACDF"/>
<path d="M50.3888 437.5C52.2312 427 59.3326 402.8 72.9994 390C86.6663 377.2 115.541 366 128.27 362C149.708 354.833 202.284 329.568 221.578 304.768V274.074C214.226 265.658 198.266 239.754 193.246 203.472C192.349 205.134 189.98 207.462 187.673 203.472C184.789 198.484 181.608 191.956 181.608 184.733V176.654C181.61 174.468 182.215 170.095 184.618 170.095C183.789 166.079 182.133 155.248 182.133 144.05C182.133 132.852 184.154 115.948 185.165 108.895C186.582 97.3542 188.547 75.5302 203.644 63.6006C217.872 52.9293 235.45 40.6292 276.605 40.6292C317.76 40.6292 335.338 52.9293 349.567 63.6006C364.664 75.5302 366.629 97.3542 368.046 108.895C369.056 115.948 371.078 132.852 371.078 144.05C371.078 155.248 369.421 166.079 368.593 170.095C370.996 170.095 371.6 174.468 371.602 176.654V184.733C371.602 191.956 368.421 198.484 365.538 203.472C363.23 207.462 360.861 205.134 359.965 203.472C354.945 239.754 338.985 265.658 331.632 274.074V304.768C350.926 329.568 403.502 354.833 424.94 362C437.669 366 466.544 377.2 480.211 390C493.878 402.8 502.769 427 504.611 437.5C454.247 508.756 371.559 555.5 277.5 555.5C183.547 555.5 100.77 508.619 50.3888 437.5Z" fill="#CEDAF0"/>
</g>
<defs>
<clipPath id="clip0">
<rect width="555" height="555" fill="white" transform="translate(0 0.5)"/>
</clipPath>
</defs>
</svg>
